{
    "type": "postgres",
    "host": "dumpdb.hanyang.ac.kr",
    "port": 54321,
    "username": "postgres",
    "password": "rkskekfk",
    "database": "cssc",
    "entities": [
        "./dist/entity/**/*{.ts,.js}"
    ]
}